{
  "@CommentsHeader": {
    "JSON-Instance": "ingestor_environment_params.json",
    "Purpose": "This json is used to define the Ingestion-level global variables hadoop options/s3 disct cp options can be provided depending on versions",
    "Created by": "ZS Associates",
    "Created on": "15th March 2019",
    "Consuming module": "All Python modules",
    "Last changed on": "15th March 2019",
    "Last changed by": "Himanshu Khatri",
    "Reason for change": "Development of config"
  },
  "adapter_details": {
    "generic_config": {
      "local_temp_path": "/temp/",
      "s3_temp_path": "s3://aws-a0036-use1-00-d-s3b-rwcb-chb-data01/kol_poc/dev/temp/",
      "emr_code_path": "/appdata/dev/clinical_data_lake/v0_0_5/code",
      "env": "dev",
      "mysql_host": "aws-a0036-use1-1a-d-rds-shrd-chb-dev01.chztorxtt1g3.us-east-1.rds.amazonaws.com",
      "s3_bucket_name": "aws-a0036-use1-00-d-s3b-rwcb-chb-data01",
      "mysql_port": "3306",
      "mysql_username": "master_db_chb",
      "mysql_password": "Soja6uH7tr2F",
      "mysql_db": "kol_data",
      "cluster_mode": "EMR",
      "s3_region": "us-east-1",
      "aws_region": "us-east-1",
      "s3_region_endpoint": "s3-us-east-1.amazonaws.com",
      "private_key_loaction": "/projects/rwd/rwe/backend/conf/aws-a0036-use1-00-d-kpr-shrd-chb-emr01.pem",
      "ses_region": "us-east-1"
    },
    "investigator": {
      "cluster_type": "small",
      "get_token_url": "https://identity.pharmaintelligence.informa.com/connect/token",
      "delta_refresh": "feed/investigator/changes",
      "token_header": "Basic Y3VzdG9tZXJfYXBpX2NsaWVudF9uYXRpdmU6NTIwNzhjMGItMTI5Mi00MGVhLWFkYjAtOWE4MWY4OGNjZDMy",
      "token_pay_load": {
        "username": "arushi.jain@zs.com",
        "scope": "customer-api",
        "password": "apr@2018",
        "grant_type": "password"
      },
      "search_api_url": "search/investigator",
      "full_load": "feed/investigator",
      "host_url": "https://api.pharmaintelligence.informa.com/v1/",
      "execution_module": "DataIngestionAdapter"
    }
  }
}

